#MMDB	2	3
C	83	ntCDD=bsnCiEe0=n\CC
t.
_ibD_=E\D\
#2DD_0=m.2m\.aC#e2nEt=ol.a9=.t==d=n.r.s.#3fe
i=_e=0=d	g	iE=iiee\==E:=vhaetl=id:	_nCtri#
rcdvEn7s==
ihoD:
nE\en:O_e=Etsi=e	C	e_xD	nnim=
:m0oe.O=c.d	1o
i
1nneDh
==	_itnli\dett1CnD:
oD
DC_	o2s=xt\o:sC
0e=Ciedb	Eo=.v_e\o1.ie=Cceod_40hd\	o2iodossD.
m_eo=0#m
t=:dp1a
=:1i\mC:3m9rc2g2_beO=_ov
	\ot
Oe
Dm=01f2:
_=n
n

Es
EC0sCdii	tD_rCEvieD.nC.3=2
noo.:ui_gptinC=O#

tmf0n\iD2_o_idaoeoEgenCo1irt=EiO\OC:op.m4
b
iCE\tmm_n	1:CD#m_s.

==
p=vbo\n2n:=
g=
CD#D.EsmCeelec	#p:\\hmx_8rsoteDCe	pt#ODyDvt28#oDEse
d:oo\C
:n0Cd:ih
=
\m5DC
tCt==_\O=Exeio9c:s:DD_=.#\	_r\.#lcdeC7tnmDo	e#nd=cedce.=.dpnE\	b_imEi=pp\_CDCtCgEdDDnbCDn_\veti\.ip#g
pfamCdmdfCeidnCOnC:ngn
e
=n
	n.v.n#	v:	=ii	iea
nEp.#oni
=iv	.
9==ado.m\h.
20d0\ieCssy:
D
:0d8l=o..n	=
2bntOgin:da2Ccdi=g_=_gC
a=Cn=e:EODrgDegO:i:\e.nb
nEi
g	n:\.=.
g2Doyebm9_r:\nv=8n#DaDvd=u	=1Dddd0CEa.	=:oeC	r7md_		o	.CDam		s_=Cx	i.Dd=vn#_nsOe.im	n=E.dad=O0	oeoC=CxDpEbm=rnd	8e\dosx	CsD
c=D=miCi:erDi0
=ete.donmbtD	7.nO	C
c=Ee\cC
:=Cd\dt
#p:s9	d=
ni.2Ei:2iaC:	0hr=fC
h:.O\r


v	.4.Cn=	:f	:	gsd1C#
iDi
memanpioeonC.2__
Ddd=	
iCn=g3egD=_\DaDxnCE=nx:OEE._xe:4td_d
ni5
=n5=9CmOtm#s.no=_8enD:9D5_
c=._C:	rnbn\tsCm_tE2o.9D=1=	=rDm8enh	:
Cn
.1oe:o21h
E
	#opoepx.\se._d9iE.8	
m_\d:iDoe=t4nnm:nbir
0dE.t=	=a\aEiD_.0ed
8_t=ie_:tOacr	tO=CmerCdse:9==d_6m
:#CC.mCdn:=
dC
aEe
.
:4:
##nobfxndlet=.	t=i#v
=

hi:DDgivt0po
tdC=8.	9.CEi:	v0Cm	bm\_Em_n	1v.#.O.i7D	=dC2d=O
0=CEmits\=C.Evr\id\ilepe\st:1dvD8e9C
f:omD=ms==:omenD1Dbr=Oe#	ta
D:7#1Dbex_r.	em3eOvdaD
=rCD	c	n	=v8deD
Dn#ci
#d\C
d==_gmmbd_\0Cin:Cmn\:E=
sn=EEi.D
=irO
	
ot
O=Dch=:::DeDO=e:.on	=nEnii.29m=
Oibmeeoi=y2=5Cdr
._.t	v.pi=\:E	.EmEt=0b
clx		c1\eCet0\iEtcdno1.nl\82dC	h=

2l
2	Cinds#
s=1:d:n3:80D
_=OOe	Ds.m:C\on	x=:.ssoO3e	.
nC.EE:
1	eDE\ivd2coec:iO3		_dbo_xb2d8_#E=\_n0n8C_8..tt
8	.rOs8t\e.==oO_C
nDDamC\#dgdC_isD=dp3C\tnDC#i.d\toDEg=		mdanneO.hgv_e
.:_8OiDm
Cnn=pexn_vDC
mE_2iOen2h.e	9g5=nE..\t	==gcnvitddOags\oiE	=:dvDC=i0
:d=
_=2n\\nndm=:0.0rC.d\_t
x	#OdncEgi.D_isDOD.\Cbdl:.ed_invodCvrC:pxiE.E	pbpeoo0E
=np=

#D4#o0=C=
obt=num5e#0:Cti.085n21vCCt#_a	Ddm
sddm
D
em.#tei:==poho_Cp

i
=D#	y
ma0=
_=
ne==h	pmnm	oCm0=d\\mc=
o\nnmid.	g#pe\8#Dt\g	pOiern	EdcgnDvt	nv	g4.o	=fOft_8ConCnts.emre1ir
Cit1.CcDnC
0C.ns:CmEe	C
=En#\db\7vD0:d=s
=D
dmrsvns
ndg	DDnm.oC=C.=rndx	Endv	se1=oOEEpzOoptO	eeD
e2b

\\=\x\Dv.eaeaevd
i3le_f#m:ot#.=Dvs=CnCC
9\cD_#==n=7C=i2=rcD=:	ai22oo=#.di=4lii
nnim=nChDoviid

otxO
pnciCe\=gCcenD8CCCva\5cms\m..	oiD	=
C\
_	n2\
O===i
sm_hOpDi	.v.=.mOp:nne=	dbDO=7o=n\:3	=#_18ne:n==iC=:i=Cd\
=onnm		oO._Oe:\e#d\
o.
nmiOd=#t=o	2d\o
t=\
af=.Eme.nt_d2vos#2\	
=xCn==C
DdD	pb_Dhx
.mi=\=rsv=	
x
==a	noem=p
onne
ssm.c3D
C6ifed_#=EedEt	E1=\ODm
:at=t\=Cri:faE1Dv	=:	=
0hn_
o=.snsd4
:=:h_f=.
DOi:	dn	\:t=
CD0=_di\D\=	m_.ftnuCt_\dn2=beennnllnCm.e0oDpdo	:o_nCn=0C=i
d::=:4et\=#e_nD_o=	8e#
d	rOy1=D2t=nrd#e
m:avCv\=Cn82x
d:io:D\gtO	me==fnm2	od==	=oOEs=#gg_ne

=CevE\DdmDDC=Oie=hng1tenDo0	y

o
.eexrn
.		i\fgOp.	2ED\to=\_siin\a
DD
O.:ao
=tmCt:	\\_.\ndnviC
i_gnO.#v=1\.
:_8vs	a=:it
#eE	Dx
o=DCConeC.a
xn.d\n.n.t=:
O#=
ann80vDC9m_a\=Dt	\#:E_:.deE=rvbOOes
el:DnDO\mnd=o


2nC=
ne3	nEn\nddto=Ci_Dvfoz\_D\l	iOm:i=_=	nt	dio8evihfdC
dExri.Ea
b0b=
=D#nCehbO	::s0tsir7Ct9dstx=lnD:n
D=CnCDD=vr
Cnx
is
2C=D	m=:nnr	aoaotn:=n1v9
8isdn
an
bsmCo
=viD1t4ds.
svD7gmO
\iD\iOi\hCe=v=ti=\.p#=E=tp:de.C:m=nd:\Dxe=eeOt:d	.c4ciCOi=	eveOcrt=.=m0n
io=5se:ln	._O_	Dmn4e1D=it
	=c_=nsd0Ccndgnrxo	e\nde:dnE
CEdm__d=_DOd:_o
#=
mromi
\gdD.nE=nne0ev
Dmn=eDren.=Dtaix9O8=
m0=tnm.rDxn0nc		olm0vOlrsC:
_h=8C..rieosa:ne:
yd8i=vsri=tD21\	on=6.1ctyeDn.vCdE=.\=rme\DcDdsetE0O:v\:Ei1#D.C1_ev1
=	_o_ir
ndE
=Ddn
.	oto==te	DtDg
8	_:eont2=	C1i1=	Ciea=
	eD_m\c.1dCaD\e=tc
n	3_de	iD=:etaa0xdi:=O:.n
D1=n	=i
nte:_irD=C
		o:CD.n#.Ddso	=mt\9

C	d.Cid_hD0cs


D3Co_	nd=o
_cdi=.cnvcco_h#nhD=ri2.
x=x1m.	daxDeDe_=bo
:siei_s:E#O=tr_s:CdaO#OnhO.:O=

dxmni\=:Dh:_D\6_CC\voDCnE.
x9nd

.pai02	iiEd
vx._\t\s1c=m=C
o#e	m
.po=gn	e\
i=ODd\C0_.Odog\	isosbt	Dm=CDDEtm2x\lO=c=bdtieDE..
i#Dn=n#C=p9
i	apn:dC=O=Cr\
o	c_vCii3=_
sOnrn0m
D=ne=en.d	o=h
\e1df.xvD=evi2f_8nyCC=\neao	i:\xton:	nC
Oos
nfDn8pnD.iOO:Ox


2se_d.rs9iCe:Opb=ng
=8v_#_
n
ndmE\=l\t	=9=		t=#mnDtg=Dxv9
#a=noin=d=
3n=Emsn=OgyCn
=\iD.Ci_9Dp0Ch_mOg#O	eao=:rE=2lh	_iDr
rx_xnn_p=_\tDc81vsit0.hemh	=d\\mdiCsot8nCbEv=		l\\c	_=_i\
ODd
2=C\8=er
D

:di=DC	:a::Disim